\BOOKMARK [0][-]{chapter.1}{Pr\351sentation}{}% 1
\BOOKMARK [1][-]{section.1.1}{Introduction}{chapter.1}% 2
\BOOKMARK [1][-]{section.1.2}{Pr\351sentation du groupe de travail}{chapter.1}% 3
\BOOKMARK [2][-]{subsection.1.2.1}{Chef de projet : Simon Duclos}{section.1.2}% 4
\BOOKMARK [2][-]{subsection.1.2.2}{Responsable technique : Jean-Charles Legras assist\351 par Sabrina Sahli}{section.1.2}% 5
\BOOKMARK [2][-]{subsection.1.2.3}{Responsable ma\356trise d'ouvrage : Aimad Takhtoukh}{section.1.2}% 6
\BOOKMARK [2][-]{subsection.1.2.4}{Responsable des tests : Edwin Oursel}{section.1.2}% 7
\BOOKMARK [1][-]{section.1.3}{Rappel de la demande}{chapter.1}% 8
\BOOKMARK [2][-]{subsection.1.3.1}{R\364les}{section.1.3}% 9
\BOOKMARK [1][-]{section.1.4}{Travail effectu\351}{chapter.1}% 10
\BOOKMARK [2][-]{subsection.1.4.1}{Liste des fonctionnalit\351s}{section.1.4}% 11
\BOOKMARK [2][-]{subsection.1.4.2}{M\351triques du projet}{section.1.4}% 12
\BOOKMARK [2][-]{subsection.1.4.3}{Technologies employ\351es}{section.1.4}% 13
\BOOKMARK [2][-]{subsection.1.4.4}{Justifications techniques}{section.1.4}% 14
\BOOKMARK [1][-]{section.1.5}{Probl\350mes rencontr\351s}{chapter.1}% 15
\BOOKMARK [2][-]{subsection.1.5.1}{Probl\350mes logiciels}{section.1.5}% 16
\BOOKMARK [2][-]{subsection.1.5.2}{Probl\350mes d'organisation}{section.1.5}% 17
\BOOKMARK [1][-]{section.1.6}{Synth\350se de la r\351partition des t\342ches}{chapter.1}% 18
\BOOKMARK [1][-]{section.1.7}{Conclusion}{chapter.1}% 19
