\relax 
\catcode`:\active
\catcode`;\active
\catcode`!\active
\catcode`?\active
\providecommand\HyperFirstAtBeginDocument{\AtBeginDocument}
\HyperFirstAtBeginDocument{\ifx\hyper@anchor\@undefined
\global\let\oldcontentsline\contentsline
\gdef\contentsline#1#2#3#4{\oldcontentsline{#1}{#2}{#3}}
\global\let\oldnewlabel\newlabel
\gdef\newlabel#1#2{\newlabelxx{#1}#2}
\gdef\newlabelxx#1#2#3#4#5#6{\oldnewlabel{#1}{{#2}{#3}}}
\AtEndDocument{\ifx\hyper@anchor\@undefined
\let\contentsline\oldcontentsline
\let\newlabel\oldnewlabel
\fi}
\fi}
\global\let\hyper@last\relax 
\gdef\HyperFirstAtBeginDocument#1{#1}
\providecommand\HyField@AuxAddToFields[1]{}
\select@language{french}
\@writefile{toc}{\select@language{french}}
\@writefile{lof}{\select@language{french}}
\@writefile{lot}{\select@language{french}}
\@writefile{toc}{\contentsline {chapter}{\numberline {1}Pr\IeC {\'e}sentation}{3}{chapter.1}}
\@writefile{lof}{\addvspace {10\p@ }}
\@writefile{lot}{\addvspace {10\p@ }}
\@writefile{toc}{\contentsline {section}{\numberline {1.1}Introduction}{3}{section.1.1}}
\@writefile{toc}{\contentsline {paragraph}{}{3}{section*.2}}
\@writefile{toc}{\contentsline {section}{\numberline {1.2}Pr\IeC {\'e}sentation du groupe de travail}{3}{section.1.2}}
\@writefile{toc}{\contentsline {paragraph}{}{3}{section*.3}}
\@writefile{toc}{\contentsline {paragraph}{}{3}{section*.4}}
\@writefile{toc}{\contentsline {subsection}{\numberline {1.2.1}Chef de projet : Simon Duclos}{3}{subsection.1.2.1}}
\@writefile{toc}{\contentsline {paragraph}{}{3}{section*.6}}
\@writefile{toc}{\contentsline {paragraph}{}{3}{section*.8}}
\@writefile{toc}{\contentsline {paragraph}{}{4}{section*.9}}
\@writefile{toc}{\contentsline {paragraph}{}{4}{section*.10}}
\@writefile{toc}{\contentsline {paragraph}{}{4}{section*.12}}
\@writefile{toc}{\contentsline {subsection}{\numberline {1.2.2}Responsable technique : Jean-Charles Legras assist\IeC {\'e} par Sabrina Sahli}{4}{subsection.1.2.2}}
\@writefile{toc}{\contentsline {paragraph}{}{4}{section*.14}}
\@writefile{toc}{\contentsline {paragraph}{}{4}{section*.16}}
\@writefile{toc}{\contentsline {subsubsection}{Conseils}{4}{section*.17}}
\@writefile{toc}{\contentsline {paragraph}{}{4}{section*.18}}
\@writefile{toc}{\contentsline {subsection}{\numberline {1.2.3}Responsable ma\IeC {\^\i }trise d'ouvrage : Aimad Takhtoukh}{4}{subsection.1.2.3}}
\@writefile{toc}{\contentsline {paragraph}{}{4}{section*.20}}
\@writefile{toc}{\contentsline {paragraph}{}{5}{section*.22}}
\@writefile{toc}{\contentsline {subsection}{\numberline {1.2.4}Responsable des tests : Edwin Oursel}{5}{subsection.1.2.4}}
\@writefile{toc}{\contentsline {paragraph}{}{5}{section*.24}}
\@writefile{toc}{\contentsline {paragraph}{}{5}{section*.26}}
\@writefile{toc}{\contentsline {paragraph}{}{5}{section*.28}}
\@writefile{toc}{\contentsline {section}{\numberline {1.3}Rappel de la demande}{5}{section.1.3}}
\@writefile{toc}{\contentsline {paragraph}{}{5}{section*.29}}
\@writefile{toc}{\contentsline {paragraph}{}{5}{section*.30}}
\@writefile{toc}{\contentsline {paragraph}{}{5}{section*.31}}
\@writefile{toc}{\contentsline {paragraph}{}{5}{section*.32}}
\@writefile{toc}{\contentsline {paragraph}{}{5}{section*.33}}
\@writefile{toc}{\contentsline {subsection}{\numberline {1.3.1}R\IeC {\^o}les}{6}{subsection.1.3.1}}
\@writefile{toc}{\contentsline {paragraph}{}{6}{section*.34}}
\@writefile{toc}{\contentsline {paragraph}{}{6}{section*.35}}
\@writefile{toc}{\contentsline {paragraph}{}{6}{section*.36}}
\@writefile{toc}{\contentsline {paragraph}{}{6}{section*.37}}
\@writefile{toc}{\contentsline {paragraph}{}{6}{section*.38}}
\@writefile{toc}{\contentsline {section}{\numberline {1.4}Travail effectu\IeC {\'e}}{6}{section.1.4}}
\@writefile{toc}{\contentsline {paragraph}{}{6}{section*.39}}
\@writefile{toc}{\contentsline {paragraph}{}{6}{section*.40}}
\@writefile{toc}{\contentsline {subsection}{\numberline {1.4.1}Liste des fonctionnalit\IeC {\'e}s}{6}{subsection.1.4.1}}
\@writefile{toc}{\contentsline {paragraph}{}{6}{section*.41}}
\@writefile{toc}{\contentsline {paragraph}{}{6}{section*.42}}
\@writefile{toc}{\contentsline {paragraph}{}{6}{section*.43}}
\@writefile{toc}{\contentsline {paragraph}{}{6}{section*.44}}
\@writefile{toc}{\contentsline {paragraph}{}{7}{section*.45}}
\@writefile{toc}{\contentsline {paragraph}{}{7}{section*.46}}
\@writefile{toc}{\contentsline {paragraph}{}{7}{section*.47}}
\@writefile{toc}{\contentsline {paragraph}{}{7}{section*.48}}
\@writefile{toc}{\contentsline {paragraph}{}{7}{section*.49}}
\@writefile{toc}{\contentsline {paragraph}{}{7}{section*.50}}
\@writefile{toc}{\contentsline {paragraph}{}{7}{section*.51}}
\@writefile{toc}{\contentsline {subsection}{\numberline {1.4.2}M\IeC {\'e}triques du projet}{7}{subsection.1.4.2}}
\@writefile{toc}{\contentsline {paragraph}{}{7}{section*.52}}
\@writefile{toc}{\contentsline {paragraph}{}{8}{section*.53}}
\@writefile{toc}{\contentsline {subsection}{\numberline {1.4.3}Technologies employ\IeC {\'e}es}{8}{subsection.1.4.3}}
\@writefile{toc}{\contentsline {subsubsection}{Projet}{8}{section*.54}}
\@writefile{toc}{\contentsline {paragraph}{}{8}{section*.55}}
\@writefile{toc}{\contentsline {paragraph}{}{8}{section*.56}}
\@writefile{toc}{\contentsline {paragraph}{}{8}{section*.57}}
\@writefile{toc}{\contentsline {paragraph}{}{8}{section*.58}}
\@writefile{toc}{\contentsline {subsubsection}{Organisation}{8}{section*.59}}
\@writefile{toc}{\contentsline {paragraph}{}{8}{section*.60}}
\@writefile{toc}{\contentsline {paragraph}{}{8}{section*.61}}
\@writefile{toc}{\contentsline {paragraph}{}{8}{section*.62}}
\@writefile{toc}{\contentsline {subsection}{\numberline {1.4.4}Justifications techniques}{8}{subsection.1.4.4}}
\@writefile{toc}{\contentsline {paragraph}{}{8}{section*.63}}
\@writefile{toc}{\contentsline {paragraph}{}{8}{section*.64}}
\@writefile{toc}{\contentsline {paragraph}{}{9}{section*.65}}
\@writefile{toc}{\contentsline {section}{\numberline {1.5}Probl\IeC {\`e}mes rencontr\IeC {\'e}s}{9}{section.1.5}}
\@writefile{toc}{\contentsline {subsection}{\numberline {1.5.1}Probl\IeC {\`e}mes logiciels}{9}{subsection.1.5.1}}
\@writefile{toc}{\contentsline {paragraph}{}{9}{section*.66}}
\@writefile{toc}{\contentsline {paragraph}{}{9}{section*.67}}
\@writefile{toc}{\contentsline {paragraph}{}{9}{section*.68}}
\@writefile{toc}{\contentsline {paragraph}{}{9}{section*.69}}
\@writefile{toc}{\contentsline {paragraph}{}{9}{section*.70}}
\@writefile{toc}{\contentsline {subsection}{\numberline {1.5.2}Probl\IeC {\`e}mes d'organisation}{9}{subsection.1.5.2}}
\@writefile{toc}{\contentsline {paragraph}{}{9}{section*.71}}
\@writefile{toc}{\contentsline {paragraph}{}{9}{section*.72}}
\@writefile{toc}{\contentsline {paragraph}{}{9}{section*.73}}
\@writefile{toc}{\contentsline {paragraph}{}{10}{section*.74}}
\@writefile{toc}{\contentsline {paragraph}{}{10}{section*.75}}
\@writefile{toc}{\contentsline {section}{\numberline {1.6}Synth\IeC {\`e}se de la r\IeC {\'e}partition des t\IeC {\^a}ches}{10}{section.1.6}}
\@writefile{toc}{\contentsline {paragraph}{}{10}{section*.76}}
\@writefile{toc}{\contentsline {section}{\numberline {1.7}Conclusion}{10}{section.1.7}}
\@writefile{toc}{\contentsline {paragraph}{}{10}{section*.77}}
\@writefile{toc}{\contentsline {paragraph}{}{10}{section*.78}}
\@writefile{toc}{\contentsline {paragraph}{}{10}{section*.79}}
\@writefile{toc}{\contentsline {paragraph}{}{10}{section*.80}}
\@writefile{toc}{\contentsline {paragraph}{}{10}{section*.81}}
