\relax 
\catcode`:\active
\catcode`;\active
\catcode`!\active
\catcode`?\active
\providecommand\HyperFirstAtBeginDocument{\AtBeginDocument}
\HyperFirstAtBeginDocument{\ifx\hyper@anchor\@undefined
\global\let\oldcontentsline\contentsline
\gdef\contentsline#1#2#3#4{\oldcontentsline{#1}{#2}{#3}}
\global\let\oldnewlabel\newlabel
\gdef\newlabel#1#2{\newlabelxx{#1}#2}
\gdef\newlabelxx#1#2#3#4#5#6{\oldnewlabel{#1}{{#2}{#3}}}
\AtEndDocument{\ifx\hyper@anchor\@undefined
\let\contentsline\oldcontentsline
\let\newlabel\oldnewlabel
\fi}
\fi}
\global\let\hyper@last\relax 
\gdef\HyperFirstAtBeginDocument#1{#1}
\providecommand\HyField@AuxAddToFields[1]{}
\select@language{french}
\@writefile{toc}{\select@language{french}}
\@writefile{lof}{\select@language{french}}
\@writefile{lot}{\select@language{french}}
\@writefile{toc}{\contentsline {section}{\numberline {1}Objet}{4}{section.1}}
\@writefile{toc}{\contentsline {section}{\numberline {2}Documents applicables et de r\IeC {\'e}f\IeC {\'e}rence}{4}{section.2}}
\@writefile{toc}{\contentsline {section}{\numberline {3}Terminologie et sigles utilis\IeC {\'e}s}{4}{section.3}}
\@writefile{toc}{\contentsline {section}{\numberline {4}Configuration requise}{5}{section.4}}
\@writefile{toc}{\contentsline {section}{\numberline {5}D\IeC {\'e}ploiement}{5}{section.5}}
\@writefile{toc}{\contentsline {section}{\numberline {6}Architecture statique}{6}{section.6}}
\@writefile{toc}{\contentsline {subsection}{\numberline {6.1}Structure}{6}{subsection.6.1}}
\@writefile{lof}{\contentsline {figure}{\numberline {1}{\ignorespaces Architecture g\IeC {\'e}n\IeC {\'e}rale}}{6}{figure.1}}
\@writefile{toc}{\contentsline {subsection}{\numberline {6.2}Explications}{7}{subsection.6.2}}
\@writefile{toc}{\contentsline {subsection}{\numberline {6.3}Description du constituant Vue}{7}{subsection.6.3}}
\@writefile{toc}{\contentsline {paragraph}{Description}{7}{section*.3}}
\@writefile{toc}{\contentsline {subsubsection}{\numberline {6.3.1}Proc\IeC {\'e}d\IeC {\'e} de d\IeC {\'e}veloppement}{7}{subsubsection.6.3.1}}
\@writefile{toc}{\contentsline {paragraph}{Langages de programmation}{7}{section*.4}}
\@writefile{toc}{\contentsline {subsection}{\numberline {6.4}Description du constituant Contr\IeC {\^o}leur}{7}{subsection.6.4}}
\@writefile{toc}{\contentsline {paragraph}{Description}{7}{section*.5}}
\@writefile{toc}{\contentsline {subsubsection}{\numberline {6.4.1}Proc\IeC {\'e}d\IeC {\'e} de d\IeC {\'e}veloppement}{7}{subsubsection.6.4.1}}
\@writefile{toc}{\contentsline {paragraph}{Langage de programmation}{7}{section*.6}}
\@writefile{toc}{\contentsline {paragraph}{Outil}{8}{section*.7}}
\@writefile{lof}{\contentsline {figure}{\numberline {2}{\ignorespaces Communication entre la vue et le mod\IeC {\`e}le}}{8}{figure.2}}
\@writefile{toc}{\contentsline {subsection}{\numberline {6.5}Description du constituant Mod\IeC {\`e}le}{9}{subsection.6.5}}
\@writefile{toc}{\contentsline {paragraph}{Description}{9}{section*.8}}
\@writefile{toc}{\contentsline {subsubsection}{\numberline {6.5.1}Description des entit\IeC {\'e}s}{9}{subsubsection.6.5.1}}
\@writefile{toc}{\contentsline {paragraph}{}{9}{section*.11}}
\@writefile{lof}{\contentsline {figure}{\numberline {3}{\ignorespaces Constituant base de donn\IeC {\'e}es}}{11}{figure.3}}
\@writefile{toc}{\contentsline {subsubsection}{\numberline {6.5.2}Proc\IeC {\'e}d\IeC {\'e} de d\IeC {\'e}veloppement}{12}{subsubsection.6.5.2}}
\@writefile{toc}{\contentsline {subsection}{\numberline {6.6}Justifications techniques}{12}{subsection.6.6}}
\@writefile{toc}{\contentsline {section}{\numberline {7}La g\IeC {\'e}olocalisation}{13}{section.7}}
\@writefile{toc}{\contentsline {subsection}{\numberline {7.1}Description}{13}{subsection.7.1}}
\@writefile{toc}{\contentsline {subsection}{\numberline {7.2}Proc\IeC {\'e}d\IeC {\'e}}{13}{subsection.7.2}}
\@writefile{toc}{\contentsline {subsection}{\numberline {7.3}API}{13}{subsection.7.3}}
\@writefile{toc}{\contentsline {section}{\numberline {8}Planning d'une offre de location}{14}{section.8}}
\@writefile{toc}{\contentsline {subsection}{\numberline {8.1}Description}{14}{subsection.8.1}}
\@writefile{toc}{\contentsline {subsection}{\numberline {8.2}API}{14}{subsection.8.2}}
\@writefile{toc}{\contentsline {section}{\numberline {9}Fonctionnement dynamique}{15}{section.9}}
\@writefile{toc}{\contentsline {subsection}{\numberline {9.1}D\IeC {\'e}poser une nouvelle offre de location}{15}{subsection.9.1}}
\@writefile{lof}{\contentsline {figure}{\numberline {4}{\ignorespaces D\IeC {\'e}poser une nouvelle offre de location}}{15}{figure.4}}
\@writefile{toc}{\contentsline {subsection}{\numberline {9.2}Filtrer une offre de location}{16}{subsection.9.2}}
\@writefile{lof}{\contentsline {figure}{\numberline {5}{\ignorespaces Filtrer une offre de location}}{16}{figure.5}}
\@writefile{toc}{\contentsline {subsection}{\numberline {9.3}R\IeC {\'e}pondre \IeC {\`a} un questionnaire}{17}{subsection.9.3}}
\@writefile{lof}{\contentsline {figure}{\numberline {6}{\ignorespaces R\IeC {\'e}pondre \IeC {\`a} un questionnaire}}{17}{figure.6}}
\@writefile{toc}{\contentsline {subsection}{\numberline {9.4}D\IeC {\'e}poser une nouvelle annonce publicitaire}{18}{subsection.9.4}}
\@writefile{lof}{\contentsline {figure}{\numberline {7}{\ignorespaces D\IeC {\'e}poser une nouvelle annonce publicitaire}}{18}{figure.7}}
\@writefile{toc}{\contentsline {subsection}{\numberline {9.5}Examiner une offre de location en attente de validation}{19}{subsection.9.5}}
\@writefile{lof}{\contentsline {figure}{\numberline {8}{\ignorespaces Examiner une offre de location en attente de validation}}{19}{figure.8}}
\@writefile{toc}{\contentsline {subsection}{\numberline {9.6}Examiner une annonce publicitaire en attente de validation}{20}{subsection.9.6}}
\@writefile{lof}{\contentsline {figure}{\numberline {9}{\ignorespaces Examiner une annonce publicitaire en attente de validation}}{20}{figure.9}}
\@writefile{toc}{\contentsline {subsection}{\numberline {9.7}D\IeC {\'e}p\IeC {\^o}t d'un avis informel}{21}{subsection.9.7}}
\@writefile{lof}{\contentsline {figure}{\numberline {10}{\ignorespaces D\IeC {\'e}p\IeC {\^o}t d'un avis informel}}{21}{figure.10}}
\@writefile{toc}{\contentsline {subsection}{\numberline {9.8}Bannissement d'un accueillant par un administrateur}{22}{subsection.9.8}}
\@writefile{lof}{\contentsline {figure}{\numberline {11}{\ignorespaces Bannissement d'un accueillant par un administrateur}}{22}{figure.11}}
\@writefile{toc}{\contentsline {subsection}{\numberline {9.9}Afficher les locations sur une carte de France}{23}{subsection.9.9}}
\@writefile{lof}{\contentsline {figure}{\numberline {12}{\ignorespaces Afficher les locations sur une carte de France}}{23}{figure.12}}
\@writefile{toc}{\contentsline {subsection}{\numberline {9.10}Utiliser le planning d'une offre de location}{24}{subsection.9.10}}
\@writefile{lof}{\contentsline {figure}{\numberline {13}{\ignorespaces Utiliser le planning d'une offre de location}}{24}{figure.13}}
\@writefile{toc}{\contentsline {subsection}{\numberline {9.11}Cr\IeC {\'e}er une session pour un accueillant}{25}{subsection.9.11}}
\@writefile{lof}{\contentsline {figure}{\numberline {14}{\ignorespaces Cr\IeC {\'e}er une session pour un accueillant}}{25}{figure.14}}
\newlabel{LastPage}{{}{26}{}{page.26}{}}
\xdef\lastpage@lastpage{26}
\xdef\lastpage@lastpageHy{26}
