\BOOKMARK [1][-]{section.1}{Objet}{}% 1
\BOOKMARK [1][-]{section.2}{Documents applicables et de r\351f\351rence}{}% 2
\BOOKMARK [1][-]{section.3}{Terminologie et sigles utilis\351s}{}% 3
\BOOKMARK [1][-]{section.4}{Configuration requise}{}% 4
\BOOKMARK [1][-]{section.5}{D\351ploiement}{}% 5
\BOOKMARK [1][-]{section.6}{Architecture statique}{}% 6
\BOOKMARK [2][-]{subsection.6.1}{Structure}{section.6}% 7
\BOOKMARK [2][-]{subsection.6.2}{Explications}{section.6}% 8
\BOOKMARK [2][-]{subsection.6.3}{Description du constituant Vue}{section.6}% 9
\BOOKMARK [3][-]{subsubsection.6.3.1}{Proc\351d\351 de d\351veloppement}{subsection.6.3}% 10
\BOOKMARK [2][-]{subsection.6.4}{Description du constituant Contr\364leur}{section.6}% 11
\BOOKMARK [3][-]{subsubsection.6.4.1}{Proc\351d\351 de d\351veloppement}{subsection.6.4}% 12
\BOOKMARK [2][-]{subsection.6.5}{Description du constituant Mod\350le}{section.6}% 13
\BOOKMARK [3][-]{subsubsection.6.5.1}{Description des entit\351s}{subsection.6.5}% 14
\BOOKMARK [3][-]{subsubsection.6.5.2}{Proc\351d\351 de d\351veloppement}{subsection.6.5}% 15
\BOOKMARK [2][-]{subsection.6.6}{Justifications techniques}{section.6}% 16
\BOOKMARK [1][-]{section.7}{La g\351olocalisation}{}% 17
\BOOKMARK [2][-]{subsection.7.1}{Description}{section.7}% 18
\BOOKMARK [2][-]{subsection.7.2}{Proc\351d\351}{section.7}% 19
\BOOKMARK [2][-]{subsection.7.3}{API}{section.7}% 20
\BOOKMARK [1][-]{section.8}{Planning d'une offre de location}{}% 21
\BOOKMARK [2][-]{subsection.8.1}{Description}{section.8}% 22
\BOOKMARK [2][-]{subsection.8.2}{API}{section.8}% 23
\BOOKMARK [1][-]{section.9}{Fonctionnement dynamique}{}% 24
\BOOKMARK [2][-]{subsection.9.1}{D\351poser une nouvelle offre de location}{section.9}% 25
\BOOKMARK [2][-]{subsection.9.2}{Filtrer une offre de location}{section.9}% 26
\BOOKMARK [2][-]{subsection.9.3}{R\351pondre \340 un questionnaire}{section.9}% 27
\BOOKMARK [2][-]{subsection.9.4}{D\351poser une nouvelle annonce publicitaire}{section.9}% 28
\BOOKMARK [2][-]{subsection.9.5}{Examiner une offre de location en attente de validation}{section.9}% 29
\BOOKMARK [2][-]{subsection.9.6}{Examiner une annonce publicitaire en attente de validation}{section.9}% 30
\BOOKMARK [2][-]{subsection.9.7}{D\351p\364t d'un avis informel}{section.9}% 31
\BOOKMARK [2][-]{subsection.9.8}{Bannissement d'un accueillant par un administrateur}{section.9}% 32
\BOOKMARK [2][-]{subsection.9.9}{Afficher les locations sur une carte de France}{section.9}% 33
\BOOKMARK [2][-]{subsection.9.10}{Utiliser le planning d'une offre de location}{section.9}% 34
\BOOKMARK [2][-]{subsection.9.11}{Cr\351er une session pour un accueillant}{section.9}% 35
