\select@language {french}
\contentsline {figure}{\numberline {1}{\ignorespaces Architecture g\IeC {\'e}n\IeC {\'e}rale}}{6}{figure.1}
\contentsline {figure}{\numberline {2}{\ignorespaces Communication entre la vue et le mod\IeC {\`e}le}}{8}{figure.2}
\contentsline {figure}{\numberline {3}{\ignorespaces Constituant base de donn\IeC {\'e}es}}{11}{figure.3}
\contentsline {figure}{\numberline {4}{\ignorespaces D\IeC {\'e}poser une nouvelle offre de location}}{15}{figure.4}
\contentsline {figure}{\numberline {5}{\ignorespaces Filtrer une offre de location}}{16}{figure.5}
\contentsline {figure}{\numberline {6}{\ignorespaces R\IeC {\'e}pondre \IeC {\`a} un questionnaire}}{17}{figure.6}
\contentsline {figure}{\numberline {7}{\ignorespaces D\IeC {\'e}poser une nouvelle annonce publicitaire}}{18}{figure.7}
\contentsline {figure}{\numberline {8}{\ignorespaces Examiner une offre de location en attente de validation}}{19}{figure.8}
\contentsline {figure}{\numberline {9}{\ignorespaces Examiner une annonce publicitaire en attente de validation}}{20}{figure.9}
\contentsline {figure}{\numberline {10}{\ignorespaces D\IeC {\'e}p\IeC {\^o}t d'un avis informel}}{21}{figure.10}
\contentsline {figure}{\numberline {11}{\ignorespaces Bannissement d'un accueillant par un administrateur}}{22}{figure.11}
\contentsline {figure}{\numberline {12}{\ignorespaces Afficher les locations sur une carte de France}}{23}{figure.12}
\contentsline {figure}{\numberline {13}{\ignorespaces Utiliser le planning d'une offre de location}}{24}{figure.13}
\contentsline {figure}{\numberline {14}{\ignorespaces Cr\IeC {\'e}er une session pour un accueillant}}{25}{figure.14}
